%YAML 1.1
%TAG !u! tag:unity3d.com,2011:
--- !u!114 &11400000
MonoBehaviour:
  m_ObjectHideFlags: 0
  m_CorrespondingSourceObject: {fileID: 0}
  m_PrefabInternal: {fileID: 0}
  m_GameObject: {fileID: 0}
  m_Enabled: 1
  m_EditorHideFlags: 0
  m_Script: {fileID: 11500000, guid: a5b1f96788345b94380f0032af64faf6, type: 3}
  m_Name: Cautious
  m_EditorClassIdentifier: 
  fleeHealthPercentage: 50
  chasePlayerWhenSeen: 0
  usesPatroling: 1
