%YAML 1.1
%TAG !u! tag:unity3d.com,2011:
--- !u!114 &11400000
MonoBehaviour:
  m_ObjectHideFlags: 0
  m_CorrespondingSourceObject: {fileID: 0}
  m_PrefabInternal: {fileID: 0}
  m_GameObject: {fileID: 0}
  m_Enabled: 1
  m_EditorHideFlags: 0
  m_Script: {fileID: 11500000, guid: 66da9623ba7a67c41bd6006dc2eb5152, type: 3}
  m_Name: SpeedBoost
  m_EditorClassIdentifier: 
  pickUptype: 2
  SpeedBoosted: 100
